<?xml version="1.0" encoding="UTF-8"?>
<testsuite name="GetAllUsers" tests="1" skipped="0" failures="0" errors="0" timestamp="2022-01-22T08:55:55" hostname="DESKTOP-9TLMHNQ" time="5.392">
  <properties/>
  <testcase name="ShouldGetAllUsers" classname="GetAllUsers" time="5.392"/>
  <system-out><![CDATA[HTTP/1.1 200 OK
Server: nginx
Date: Sat, 22 Jan 2022 08:55:59 GMT
Content-Type: application/json; charset=utf-8
Transfer-Encoding: chunked
Connection: keep-alive
Vary: Accept-Encoding
X-Frame-Options: SAMEORIGIN
X-XSS-Protection: 0
X-Content-Type-Options: nosniff
X-Download-Options: noopen
X-Permitted-Cross-Domain-Policies: none
Referrer-Policy: strict-origin-when-cross-origin
ETag: W/"e0e013154c82442c4203538690c96d32"
Cache-Control: max-age=0, private, must-revalidate
X-Request-Id: 244c62da-8340-4f5c-bb2d-4440cbf573e3
X-Runtime: 0.015960
Vary: Origin
Content-Encoding: gzip

{
    "meta": {
        "pagination": {
            "total": 2215,
            "pages": 111,
            "page": 1,
            "limit": 20,
            "links": {
                "previous": null,
                "current": "https://gorest.co.in/public/v1/users?page=1",
                "next": "https://gorest.co.in/public/v1/users?page=2"
            }
        }
    },
    "data": [
        {
            "id": 2221,
            "name": "Shakuntala Gowda",
            "email": "gowda_shakuntala@russel.com",
            "gender": "male",
            "status": "inactive"
        },
        {
            "id": 2220,
            "name": "Budhil Joshi",
            "email": "joshi_budhil@feil.net",
            "gender": "male",
            "status": "active"
        },
        {
            "id": 2219,
            "name": "Akshat Khanna LLD",
            "email": "akshat_lld_khanna@murray.org",
            "gender": "female",
            "status": "inactive"
        },
        {
            "id": 2218,
            "name": "Vasudev Mukhopadhyay",
            "email": "vasudev_mukhopadhyay@ferry.biz",
            "gender": "male",
            "status": "inactive"
        },
        {
            "id": 2217,
            "name": "Anuja Namboothiri IV",
            "email": "namboothiri_anuja_iv@quitzon.info",
            "gender": "male",
            "status": "inactive"
        },
        {
            "id": 2216,
            "name": "Rep. Heema Acharya",
            "email": "acharya_rep_heema@rolfson-mills.info",
            "gender": "female",
            "status": "active"
        },
        {
            "id": 2215,
            "name": "Nikita Chaturvedi",
            "email": "chaturvedi_nikita@keeling.org",
            "gender": "male",
            "status": "inactive"
        },
        {
            "id": 2214,
            "name": "Dayaamay Varrier",
            "email": "dayaamay_varrier@farrell.info",
            "gender": "female",
            "status": "inactive"
        },
        {
            "id": 2213,
            "name": "Esha Acharya IV",
            "email": "iv_acharya_esha@orn-cassin.biz",
            "gender": "female",
            "status": "inactive"
        },
        {
            "id": 2212,
            "name": "Msgr. Bilva Talwar",
            "email": "bilva_msgr_talwar@rosenbaum.biz",
            "gender": "male",
            "status": "inactive"
        },
        {
            "id": 2211,
            "name": "Suman Kakkar",
            "email": "suman_kakkar@heidenreich.org",
            "gender": "male",
            "status": "active"
        },
        {
            "id": 2210,
            "name": "Niranjan Khatri",
            "email": "khatri_niranjan@lind.co",
            "gender": "female",
            "status": "active"
        },
        {
            "id": 2209,
            "name": "Aalok Kaul",
            "email": "kaul_aalok@botsford-johnson.net",
            "gender": "male",
            "status": "inactive"
        },
        {
            "id": 2208,
            "name": "Chandrabhan Nair",
            "email": "nair_chandrabhan@erdman.io",
            "gender": "male",
            "status": "active"
        },
        {
            "id": 2207,
            "name": "Elakshi Bandopadhyay Esq.",
            "email": "bandopadhyay_elakshi_esq@marquardt.info",
            "gender": "male",
            "status": "inactive"
        },
        {
            "id": 2206,
            "name": "Chanakya Panicker",
            "email": "chanakya_panicker@klocko.com",
            "gender": "female",
            "status": "inactive"
        },
        {
            "id": 2205,
            "name": "Mrs. Darshan Guneta",
            "email": "darshan_guneta_mrs@ferry.org",
            "gender": "male",
            "status": "inactive"
        },
        {
            "id": 2204,
            "name": "Dayaamay Rana DO",
            "email": "do_rana_dayaamay@hane.com",
            "gender": "male",
            "status": "inactive"
        },
        {
            "id": 2203,
            "name": "Fr. Suryakantam Desai",
            "email": "fr_desai_suryakantam@johnson.biz",
            "gender": "male",
            "status": "active"
        },
        {
            "id": 2202,
            "name": "Saraswati Tagore",
            "email": "tagore_saraswati@hauck-hammes.com",
            "gender": "male",
            "status": "active"
        }
    ]
}
]]></system-out>
  <system-err><![CDATA[]]></system-err>
</testsuite>
